module gitlab.com/boulzy/dockerhostmanager

go 1.21.1

require (
	github.com/docker/docker v24.0.6+incompatible
	github.com/docker/engine-api v0.4.0
	github.com/spf13/cobra v1.7.0
	golang.org/x/exp v0.0.0-20230905200255-921286631fa9
)

require (
	github.com/Microsoft/go-winio v0.6.1 // indirect
	github.com/docker/distribution v2.8.2+incompatible // indirect
	github.com/docker/go-connections v0.4.0 // indirect
	github.com/docker/go-units v0.5.0 // indirect
	github.com/gogo/protobuf v1.3.2 // indirect
	github.com/inconshreveable/mousetrap v1.1.0 // indirect
	github.com/moby/term v0.5.0 // indirect
	github.com/morikuni/aec v1.0.0 // indirect
	github.com/opencontainers/go-digest v1.0.0 // indirect
	github.com/opencontainers/image-spec v1.0.2 // indirect
	github.com/pkg/errors v0.9.1 // indirect
	github.com/spf13/pflag v1.0.5 // indirect
	github.com/stretchr/testify v1.8.4 // indirect
	golang.org/x/mod v0.12.0 // indirect
	golang.org/x/net v0.15.0 // indirect
	golang.org/x/sys v0.12.0 // indirect
	golang.org/x/time v0.3.0 // indirect
	golang.org/x/tools v0.13.0 // indirect
	gotest.tools/v3 v3.5.1 // indirect
)
